3 Veri Temizleme – R ile Veri Dönüşümü
…
# Aykırı değerleri belirleyelim (eşik değerini aşan gözlemler aykırıdır)
data_multiple_mahal$aykiri_mahal <- mahal_dist > thresh

# Aykırı gözlemleri içeren veri setini oluşturalım
data_multiple_mahal_outlier <- 
   data_multiple_mahal[data_multiple_mahal$aykiri_mahal == TRUE, ]

# Aykırı gözlemleri ana veri seti ile eşleştirerek devlet yardımı değişkenini ekleyelim
data_multiple_mahal_result <- data_multiple[data_multiple$firma_id 
                                            %in% rownames(data_multiple_mahal_outlier), ]

# Yeni veri setini tibble formatında görüntüleyelim
as_tibble(data_multiple_mahal_result)

# A tibble: 21 × 7
   firma_id  ihracat devlet_yardimi      ciro ihracat_ulkesi calisan_sayisi
      <int>    <dbl> <fct>              <dbl>          <int>          <dbl>
 1      121 1023529. 0               1123381.             37            198
 2      123  901889. 0               1714075.             68            111
 3      125 1368772. 1               1910047.             73            128
 4      132  122575. 0               5822860.             76            145
 5      133  102062. 0               4933928.             64             91
 6      134   78875. 1                 68204.             37            175
 7      135       0  0              10142916.             68             98
 8      136  156567. 0               4589401.             78            139
 9      137   26968. 0               6302387.             51            169
10      139  195455. 0               7049346.             43            179
# ℹ 11 more rows
# ℹ 1 more variable: faaliyet_yili <int>
…
Eğer bu firmalar aşırı yüksek ihracat yapan firmalar ise, devlet yardımı alan firmaların ihracatlarının genelde arttığına dair yanlış bir çıkarım yapabiliriz.

Tam tersi, eğer bu firmalar aşırı düşük ihracat yapan firmalar ise, devlet yardımı alan firmaların başarısız olduğu gibi hatalı bir sonuç çıkabilir.

Bu yüzden, devlet yardımı alan firmalar içindeki aykırı gözlemleri temizleyerek analiz yapmak daha doğru olacaktır.

Aykırı Olmayan Gözlemler (Mahalonobis)

# Aykırı olmayan gözlemleri filtreleyerek temiz bir veri seti oluşturma
mahal_data_clean <- data_multiple[!data_multiple$firma_id %in% rownames(data_multiple_mahal_result), ]

# Yeni veri setini tibble formatında görüntüleyelim
as_tibble(mahal_data_clean)

# A tibble: 129 × 7
   firma_id ihracat devlet_yardimi     ciro ihracat_ulkesi calisan_sayisi
      <int>   <dbl> <fct>             <dbl>          <int>          <dbl>
 1        1 443952. 1              2029875.             21            222
 2        2 476982. 0              1647702.             20            202
 3        3 655871. 1              1641391.             16            172
 4        4 507051. 1              2442325.             12            186
 5        5 512929. 0              1492204.             32            196
 6        6 671506. 0              2977647.             30             17
 7        7 546092. 0              1954840.             30            206
 8        8 373494. 0              2107269.             46            126
 9        9 431315. 0              1630736.             11            162
10       10 455434. 0              1712806.             18            135
# ℹ 119 more rows
# ℹ 1 more variable: faaliyet_yili <int>
…
Bazı firmalar hiç ihracat yapmadığı halde model tarafından aykırı olarak belirlenmiştir, bu da sonuçları yanıltabilir.

Bu yüzden, devlet yardımı alan firmalar içindeki aykırı gözlemleri temizleyerek analiz yapmak daha doğru olacaktır. Böylece, aykırı gözlemlerden kaynaklanan sapmalar engellenerek, devlet desteğinin ihracat üzerindeki etkisi daha sağlıklı bir şekilde ölçülebilir.

Aykırı Olmayan Gözlemler (Isolation Forest)

# Aykırı olmayan gözlemleri filtreleyerek temiz bir veri seti oluşturma
iso_data_clean <- data_multiple[!data_multiple$firma_id 
                                %in% rownames(data_multiple_iso_outlier), ]

# Yeni veri setini tibble formatında görüntüleyelim
as_tibble(iso_data_clean)

# A tibble: 145 × 7
   firma_id ihracat devlet_yardimi     ciro ihracat_ulkesi calisan_sayisi
      <int>   <dbl> <fct>             <dbl>          <int>          <dbl>
 1        1 443952. 1              2029875.             21            222
 2        2 476982. 0              1647702.             20            202
 3        3 655871. 1              1641391.             16            172
 4        4 507051. 1              2442325.             12            186
 5        5 512929. 0              1492204.             32            196
 6        6 671506. 0              2977647.             30             17
 7        7 546092. 0              1954840.             30            206
 8        8 373494. 0              2107269.             46            126
 9        9 431315. 0              1630736.             11            162
10       10 455434. 0              1712806.             18            135
# ℹ 135 more rows
# ℹ 1 more variable: faaliyet_yili <int>
…
# Aykırı gözlemleri içeren veri setini oluşturalım
data_multiple_dbscan_outlier <- 
   data_multiple_dbscan[data_multiple_dbscan$aykiri_dbscan == TRUE, ]

# Aykırı gözlemleri ana veri seti ile eşleştirerek 
# devlet yardımı değişkenini ekleyelim
data_multiple_dbscan_result <- 
   data_multiple[data_multiple$firma_id %in% rownames(data_multiple_dbscan_outlier), ]

# Yeni veri setini tibble formatında görüntüleyelim
as_tibble(data_multiple_dbscan_result)

# A tibble: 26 × 7
   firma_id  ihracat devlet_yardimi     ciro ihracat_ulkesi calisan_sayisi
      <int>    <dbl> <fct>             <dbl>          <int>          <dbl>
 1        6  671506. 0              2977647.             30             17
 2       72  269083. 0              2933426.             22            145
 3      121 1023529. 0              1123381.             37            198
 4      122  810505. 0              2049664.             38             77
 5      123  901889. 0              1714075.             68            111
 6      124  948782. 0              1512995.             56            166
 7      125 1368772. 1              1910047.             73            128
 8      126  869610. 0              2507472.             64            219
 9      127 1047077. 0              1003626.             30            184
10      128 1015592. 0              1786360.             65            154
# ℹ 16 more rows
# ℹ 1 more variable: faaliyet_yili <int>
…
Özellikle büyük cirolara sahip ancak düşük ihracat yapan firmalar model tarafından aykırı olarak işaretlenmiş olabilir, bu da firmanın iş modeline göre farklı değerlendirilmesi gerektiğini gösterir.

DBSCAN yöntemi küme sayısını önceden belirlemeye gerek duymadığı için esnek bir model sunarken, eps ve minPts parametrelerinin uygun şekilde ayarlanması büyük önem taşır. Eğer eps değeri çok küçük seçilmişse çok fazla firma aykırı olarak belirlenebilir, minPts değeri çok büyükse bazı aykırı firmalar göz ardı edilebilir.

Aykırı Olmayan Gözlemler (DBSCAN)

# Aykırı olmayan gözlemleri filtreleyerek temiz bir veri seti oluşturma
dbscan_data_clean <- data_multiple[!data_multiple$firma_id 
                                   %in% rownames(data_multiple_dbscan_outlier), ]

# Yeni veri setini tibble formatında görüntüleyelim
as_tibble(dbscan_data_clean)

# A tibble: 124 × 7
   firma_id ihracat devlet_yardimi     ciro ihracat_ulkesi calisan_sayisi
      <int>   <dbl> <fct>             <dbl>          <int>          <dbl>
 1        1 443952. 1              2029875.             21            222
 2        2 476982. 0              1647702.             20            202
 3        3 655871. 1              1641391.             16            172
 4        4 507051. 1              2442325.             12            186
 5        5 512929. 0              1492204.             32            196
 6        7 546092. 0              1954840.             30            206
 7        8 373494. 0              2107269.             46            126
 8        9 431315. 0              1630736.             11            162
 9       10 455434. 0              1712806.             18            135
10       11 622408. 0              1341492.             31            194
# ℹ 114 more rows
# ℹ 1 more variable: faaliyet_yili <int>
…
